{
    "KPlugin": {
        "Category": "Appearance",
        "Description": "Deform windows while they are moving",
        "Description[ar]": "تمايل النوافذ أثناء تحركها",
        "Description[az]": "Hərəkət etdirildiyində pəncərələr dartılır/yığılır",
        "Description[ca@valencia]": "Deforma les finestres quan es mouen",
        "Description[ca]": "Deforma les finestres quan es mouen",
        "Description[cs]": "Deformace oken při jejich přesouvání",
        "Description[en_GB]": "Deform windows while they are moving",
        "Description[es]": "Deformar las ventanas mientras se mueven",
        "Description[fi]": "Vääristä liikkuvia ikkunoita",
        "Description[fr]": "Déformer les fenêtres pendant leur déplacement",
        "Description[hu]": "Mozgatás közben deformálja az ablakokat",
        "Description[ia]": "Deforma fenestras durante que illes es movente",
        "Description[id]": "Lenturkan window selagi ia dipindah",
        "Description[it]": "Deforma le finestre durante il loro spostamento",
        "Description[ko]": "창이 움직일 때 흔듭니다",
        "Description[nl]": "Vervormt vensters wanneer ze verplaatst worden",
        "Description[nn]": "Deformer vindauga når dei vert flytte",
        "Description[pl]": "Odkształca okna przy ich przemieszczaniu",
        "Description[pt]": "Deformar as janelas à medida que se movem",
        "Description[pt_BR]": "Deforma as janelas enquanto elas são movimentadas",
        "Description[ro]": "Deformează ferestrele în timp ce se mută",
        "Description[ru]": "Колыхание окна при его перемещении",
        "Description[sk]": "Deformuje okná pri ich presúvaní",
        "Description[sl]": "Deformiraj okna kadar se premikajo",
        "Description[sv]": "Förvräng fönster medan de flyttas",
        "Description[ta]": "சாளரங்களை நகர்த்தும்போது அவற்றை தள்ளாட செய்யும்",
        "Description[tr]": "Pencereler taşınırken onları deforme et",
        "Description[uk]": "Деформація вікон під час їхнього пересування",
        "Description[vi]": "Làm méo các cửa sổ khi chúng di chuyển",
        "Description[x-test]": "xxDeform windows while they are movingxx",
        "Description[zh_CN]": "窗口被移动时会呈现惯性晃动特效",
        "EnabledByDefault": false,
        "Id": "wobblywindows",
        "License": "GPL",
        "Name": "Wobbly Windows",
        "Name[ar]": "نوافذ متذبذبة",
        "Name[az]": "Titrək pəncərələr",
        "Name[ca@valencia]": "Finestres sacsejades",
        "Name[ca]": "Finestres sacsejades",
        "Name[cs]": "Chvějící se okna",
        "Name[en_GB]": "Wobbly Windows",
        "Name[es]": "Ventanas tambaleantes",
        "Name[fi]": "Heiluvat ikkunat",
        "Name[fr]": "Fenêtres en gélatine",
        "Name[hu]": "Tekergő ablakok",
        "Name[ia]": "Fenestras Tremulante",
        "Name[it]": "Finestre tremolanti",
        "Name[ko]": "흔들리는 창",
        "Name[nl]": "Wiebelende vensters",
        "Name[nn]": "Vaklande vindauge",
        "Name[pl]": "Chwiejne okna",
        "Name[pt]": "Janelas Trémulas",
        "Name[pt_BR]": "Janelas instáveis",
        "Name[ro]": "Ferestre tremurătoare",
        "Name[ru]": "Колышущиеся окна",
        "Name[sk]": "Zvlnené okná",
        "Name[sl]": "Trepetajoča okna",
        "Name[sv]": "Ostadiga fönster",
        "Name[ta]": "ஆடும் சாளரங்கள்",
        "Name[tr]": "Oynak Pencereler",
        "Name[uk]": "Желейні вікна",
        "Name[vi]": "Cửa sổ lắc lư",
        "Name[x-test]": "xxWobbly Windowsxx",
        "Name[zh_CN]": "窗口惯性晃动"
    },
    "X-KDE-ConfigModule": "kwin_wobblywindows_config",
    "org.kde.kwin.effect": {
        "video": "https://files.kde.org/plasma/kwin/effect-videos/wobbly_windows.ogv"
    }
}
