{
    "KPlugin": {
        "Category": "Window Management",
        "Description": "Allows you to overview virtual desktops and windows",
        "Description[ar]": "يسمح لك بإلقاء نظرة عامة على النوافذ وأسطح المكتب الافتراضية",
        "Description[az]": "Pəncərələrə və iş masalarına ümumi baxışa imkan yaradır",
        "Description[ca@valencia]": "Permet una vista general dels escriptoris virtuals i les finestres",
        "Description[ca]": "Permet una vista general dels escriptoris virtuals i les finestres",
        "Description[cs]": "Umožňuje vám zobrazit si přehled virtuálních pracovních ploch a oken",
        "Description[en_GB]": "Allows you to overview virtual desktops and windows",
        "Description[es]": "Le permite mostrar una vista general de los escritorios virtuales y de las ventanas",
        "Description[fi]": "Antaa yleiskuvan virtuaalityöpöydistä ikkunoineen",
        "Description[fr]": "Permet d'avoir un aperçu des bureaux virtuels et des fenêtres",
        "Description[hu]": "Lehetővé teszi a virtuális asztalok és ablakok áttekintését",
        "Description[ia]": "Permitte te a supervider scriptorios virtual e fenestre",
        "Description[id]": "Memungkinkan kamu untuk melihat keseluruhan window dan virtual desktop",
        "Description[it]": "Consente di visualizzare una panoramica di desktop e finestre virtuali",
        "Description[ko]": "가상 바탕 화면과 창 한눈에 보기",
        "Description[nl]": "Biedt u een overzicht van virtuele bureaubladen en vensters",
        "Description[nn]": "Gjev deg oversikt over virtuelle skrivebord og vindauge",
        "Description[pl]": "Umożliwia przeglądanie wirtualnych pulpitów i okien",
        "Description[pt]": "Permite-lhe ter uma visão geral sobre os ecrãs virtuais e janelas",
        "Description[pt_BR]": "Permite-lhe ter uma visão geral das áreas de trabalho virtuais e janelas",
        "Description[ro]": "Arată o privire generală asupra birourilor virtuale și ferestrelor",
        "Description[ru]": "Режим обзора виртуальных  столов и окон",
        "Description[sk]": "Umožňuje vám zobraziť prehľad virtuálnych plôch a okien",
        "Description[sl]": "Omogoča pregled virtualnih namizij in oken",
        "Description[sv]": "Ger dig en översikt av virtuella skrivbord och fönster",
        "Description[ta]": "பணிமேடைகளையும் சாளரங்களையும் ஒருங்கே மேற்பார்வையிட உதவும்",
        "Description[tr]": "Sanal masaüstlerini ve pencerelerin genel bir görünümünü sağlar",
        "Description[uk]": "Надає вам змогу оглядати віртуальні стільниці і вікна",
        "Description[vi]": "Cho phép bạn xem tổng quan các bàn làm việc ảo và các cửa sổ",
        "Description[x-test]": "xxAllows you to overview virtual desktops and windowsxx",
        "Description[zh_CN]": "显示包含当前所有虚拟桌面和窗口的桌面概览",
        "EnabledByDefault": false,
        "Id": "overview",
        "License": "GPL",
        "Name": "Overview",
        "Name[ar]": "نظرة عامة",
        "Name[az]": "Ümumi Baxış",
        "Name[ca@valencia]": "Vista general",
        "Name[ca]": "Vista general",
        "Name[cs]": "Přehled",
        "Name[en_GB]": "Overview",
        "Name[es]": "Vista general",
        "Name[fi]": "Yleiskuva",
        "Name[fr]": "Aperçu",
        "Name[hu]": "Áttekintés",
        "Name[ia]": "Vista de insimul",
        "Name[it]": "Panoramica",
        "Name[ko]": "한눈에 보기",
        "Name[nl]": "Overzicht",
        "Name[nn]": "Oversikt",
        "Name[pl]": "Przegląd",
        "Name[pt]": "Visão Geral",
        "Name[pt_BR]": "Visão geral",
        "Name[ro]": "Privire generală",
        "Name[ru]": "Обзор",
        "Name[sk]": "Prehľad",
        "Name[sl]": "Pregled",
        "Name[sv]": "Översikt",
        "Name[ta]": "மேலோட்டம்",
        "Name[tr]": "Genel Görünüm",
        "Name[uk]": "Огляд",
        "Name[vi]": "Tổng quan",
        "Name[x-test]": "xxOverviewxx",
        "Name[zh_CN]": "桌面概览"
    },
    "X-KDE-ConfigModule": "kwin_overview_config",
    "org.kde.kwin.effect": {
        "video": "https://files.kde.org/plasma/kwin/effect-videos/present_windows.mp4"
    }
}
