{
    "KPlugin": {
        "Category": "Appearance",
        "Description": "Helper effect for startup feedback",
        "Description[ar]": "تأثير مساعد لمؤشر بدء التشغيل",
        "Description[az]": "İstifadəçi rəyinin başlanğıcı üçün yardımçı effekt",
        "Description[ca@valencia]": "Efecte auxiliar per a la retroacció en iniciar",
        "Description[ca]": "Efecte auxiliar per a la retroacció en iniciar",
        "Description[cs]": "Pomocný efekt pro Odezvu při spouštění",
        "Description[en_GB]": "Helper effect for startup feedback",
        "Description[es]": "Efecto auxiliar para la notificación de lanzamiento",
        "Description[fi]": "Käynnistyspalautteen aputehoste",
        "Description[fr]": "Effet d'assistance du témoin de démarrage ",
        "Description[hu]": "Segédeffektus alkalmazásindításhoz",
        "Description[ia]": "Effecto de adjutante pro retorno ab lanceamento",
        "Description[id]": "Efek penunjang untuk feedback pemulaian",
        "Description[it]": "Effetto di assistenza per il segnale di avvio",
        "Description[ko]": "실행 피드백 효과",
        "Description[nl]": "Effect van hulp bij terugkoppeling van opstarten",
        "Description[nn]": "Hjelpareffekt for oppstartsvising",
        "Description[pl]": "Efekt pomocniczy dla wrażeń przy starcie",
        "Description[pt]": "Efeito auxiliar da reacção ao arranque",
        "Description[pt_BR]": "Assistente de efeito sugestões e críticas da inicialização",
        "Description[ro]": "Efect ajutător pentru reacție la lansare",
        "Description[ru]": "Вспомогательный эффект для отклика запуска приложений",
        "Description[sk]": "Pomocný efekt pre odozvu pri spustení",
        "Description[sl]": "Učinek pomočnika pri odzivu začetka",
        "Description[sv]": "Hjälpeffekt för gensvar vid programstart",
        "Description[ta]": "தொடக்க பின்னூட்டத்தை காட்ட உதவும் அசைவூட்டம்",
        "Description[tr]": "Başlangıç geri bildirimi için yardımcı efekti",
        "Description[uk]": "Допоміжний ефект перегляду повідомлень, що надсилаються програмою під час запуску",
        "Description[vi]": "Hiệu ứng trợ giúp cho phản hồi khởi động",
        "Description[x-test]": "xxHelper effect for startup feedbackxx",
        "Description[zh_CN]": "程序启动反馈辅助效果",
        "EnabledByDefault": true,
        "Id": "startupfeedback",
        "License": "GPL",
        "Name": "Startup Feedback",
        "Name[ar]": "مؤشر البدء",
        "Name[az]": "İstifadəçi rəyinin başlanğıcı",
        "Name[ca@valencia]": "Retroacció en iniciar",
        "Name[ca]": "Retroacció en iniciar",
        "Name[cs]": "Odezva při spouštění",
        "Name[en_GB]": "Startup Feedback",
        "Name[es]": "Notificación de lanzamiento",
        "Name[fi]": "Käynnistyspalaute",
        "Name[fr]": "Témoin de démarrage",
        "Name[hu]": "Alkalmazásindítási effektus",
        "Name[ia]": "Retorno ab lanceamento",
        "Name[it]": "Segnale di avvio",
        "Name[ko]": "실행 피드백",
        "Name[nl]": "Terugkoppeling van opstarten",
        "Name[nn]": "Oppstartsmelding",
        "Name[pl]": "Wrażenia przy uruchamianiu",
        "Name[pt]": "Reacção ao Arranque",
        "Name[pt_BR]": "Críticas e sugestões da inicialização",
        "Name[ro]": "Reacție la lansare",
        "Name[ru]": "Отклик запуска приложений",
        "Name[sk]": "Odozva pri spustení",
        "Name[sl]": "Povratni vpliv začetka",
        "Name[sv]": "Gensvar vid programstart",
        "Name[ta]": "தொடக்க பின்னூட்டம்",
        "Name[tr]": "Başlangıç Geri Bildirimi",
        "Name[uk]": "Повідомлення під час запуску",
        "Name[vi]": "Phản hồi khởi động",
        "Name[x-test]": "xxStartup Feedbackxx",
        "Name[zh_CN]": "程序启动反馈"
    },
    "org.kde.kwin.effect": {
        "internal": true
    }
}
